{
	"tweets":[
              {
              "user_name": "ひとりごと",
              "description": "殺人事件の依頼が来た",
              "id": 0,
              "time": 0.1,
              "reply_item": 0,
              "reply_id": 0,
              "item_id": 0
              },
              {
              "user_name": "ひとりごと",
              "description": "被害者は叶美咲、女性",
              "id": 0,
              "time": 3,
              "reply_item": 0,
              "reply_id": 0,
              "item_id": 0
              },
              {
              "user_name": "ひとりごと",
              "description": "自宅で頭から血を流して倒れていたそうだ",
              "id": 0,
              "time": 6,
              "reply_item": 0,
              "reply_id": 0,
              "item_id": 0
              },
              {
              "user_name": "ひとりごと",
              "description": "第一発見者は同じ部屋に同棲していた恋人",
              "id": 0,
              "time": 9,
              "reply_item": 0,
              "reply_id": 0,
              "item_id": 0
              },
              {
              "user_name": "ひとりごと",
              "description": "松田達也、男性",
              "id": 0,
              "time": 12,
              "reply_item": 0,
              "reply_id": 0,
              "item_id": 0
              },
              {
              "user_name": "ひとりごと",
              "description": "容疑者は被害者女性の幼馴染",
              "id": 0,
              "time": 15,
              "reply_item": 0,
              "reply_id": 0,
              "item_id": 0
              },
              {
              "user_name": "ひとりごと",
              "description": "吉田雄大、男性",
              "id": 0,
              "time": 18,
              "reply_item": 0,
              "reply_id": 0,
              "item_id": 0
              },
              {
              "user_name": "ひとりごと",
              "description": "被害者の死んだとされる時間に現場から急いで逃げる様子が",
              "id": 0,
              "time": 21,
              "reply_item": 0,
              "reply_id": 0,
              "item_id": 0
              },

              {
              "user_name": "ひとりごと",
              "description": "監視カメラに映っていた。",
              "id": 0,
              "time": 25,
              "reply_item": 0,
              "reply_id": 0,
              "item_id": 0
              },		{
              "user_name": "ひとりごと",
              "description": "しかし、容疑者は犯行を否認",
              "id": 0,
              "time": 28,
              "reply_item": 0,
              "reply_id": 0,
              "item_id": 0
              },
              {
              "user_name": "ひとりごと",
              "description": "警察は状況から松田氏がトイレに入ってる間に容疑者が部屋に侵入し",
              "id": 0,
              "time": 31,
              "reply_item": 0,
              "reply_id": 0,
              "item_id": 0
              },
              {
              "user_name": "ひとりごと",
              "description": "犯行に及んだと考えている",
              "id": 0,
              "time": 35,
              "reply_item": 0,
              "reply_id": 0,
              "item_id": 0
              },
              {
              "user_name": "ひとりごと",
              "description": "以上が前情報だ",
              "id": 0,
              "time": 40,
              "reply_item": 0,
              "reply_id": 0,
              "item_id": 0
              },
              {
              "user_name": "ひとりごと",
              "description": "では、探偵を始めよう",
              "id": 0,
              "time": 43,
              "reply_item": 0,
              "reply_id": 0,
              "item_id": 0
              },
              {
              "user_name": "ひとりごと",
              "description": "事件当日のツイートラインヘ",
              "id": 0,
              "time": 48,
              "reply_item": 0,
              "reply_id": 0,
              "item_id": 0
              },
              {
              "user_name": "タツ松",
              "description": "今日は早めに帰るぜ！",
              "id": 0,
              "time": 55,
              "reply_item": 0,
              "reply_id": 0,
              "item_id": 0
              },
              {
              "user_name": "タツ松",
              "description": "この時期に有休とれるとかマジホワイト企業!",
              "id": 0,
              "time": 57,
              "reply_item": 0,
              "reply_id": 0,
              "item_id": 0
              },
              {
              "user_name": "ひとりごと",
              "description": "事件当日12/24だ",
              "id": 0,
              "time": 58,
              "reply_item": 0,
              "reply_id": 0,
              "item_id": 0
              },

              {
              "user_name": "タツ松",
              "description": "サプライズするんだもんねムフフ(*´ω｀*)",
              "id": 0,
              "time": 59,
              "reply_item": 0,
              "reply_id": 0,
              "item_id": 0
              },
              {
              "user_name": "ひとりごと",
              "description": "どうやら遡りすぎたようだ",
              "id": 0,
              "time": 60,
              "reply_item": 0,
              "reply_id": 0,
              "item_id": 0
              },
              {
              "user_name": "ひとりごと",
              "description": "少し早送りだ",
              "id": 0,
              "time": 63,
              "reply_item": 0,
              "reply_id": 0,
              "item_id": 0
              },
              {
              "user_name": "ミッキー",
              "description": "今日はたっちん帰ってくるの10時かー。早いほう・・・かな・・・",
              "id": 0,
              "time": 64,
              "reply_item": 0,
              "reply_id": 0,
              "item_id": 0
              },
              {
              "user_name": "勇敢な吉田",
              "description": "なんか幼馴染に呼び出されたんだが・・・",
              "id": 0,
              "time": 65,
              "reply_item": 0,
              "reply_id": 0,
              "item_id": 0
              },
              {
              "user_name": "勇敢な吉田",
              "description": "あいつ彼氏いなかったっけ？",
              "id": 0,
              "time": 66,
              "reply_item": 0,
              "reply_id": 0,
              "item_id": 0
              },

              {
              "user_name": "ひとりごと",
              "description": "3時間ほど進めた",
              "id": 76,
              "time": 5,
              "reply_item": 0,
              "reply_id": 0,
              "item_id": 0
              },
              {
              "user_name": "タツ松",
              "description": "我、帰還す",
              "id": 0,
              "time": 80,
              "reply_item": 0,
              "reply_id": 0,
              "item_id": 0
              },
              {
              "user_name": "タツ松",
              "description": "どこに隠れようかな^ ^",
              "id": 0,
              "time": 88,
              "reply_item": 0,
              "reply_id": 0,
              "item_id": 0
              },

              {
              "user_name": "タツ松",
              "description": "ここにしよ。",
              "id": 0,
              "time": 92,
              "reply_item": 0,
              "reply_id": 0,
              "item_id": 0
              },
              {
              "user_name": "タツ松",
              "description": "うっすらリビングが見える・・・",
              "id": 0,
              "time": 94,
              "reply_item": 0,
              "reply_id": 0,
              "item_id": 0
              },
              {
              "user_name": "ミッキー",
              "description": "きったく＾ー＾",
              "id": 0,
              "time": 94.5,
              "reply_item": 0,
              "reply_id": 0,
              "item_id": 0
              },

              {
              "user_name": "タツ松",
              "description": "帰ってきた！",
              "id": 0,
              "time": 97,
              "reply_item": 0,
              "reply_id": 0,
              "item_id": 0
              },
              {
              "user_name": "勇敢な吉田",
              "description": "ここがあの女のハウスね()",
              "id": 0,
              "time": 100,
              "reply_item": 0,
              "reply_id": 0,
              "item_id": 0
              },
              {
              "user_name": "勇敢な吉田",
              "description": "この部屋か。まさか別れたから慰めろとかじゃないよね・・・",
              "id": 0,
              "time": 105,
              "reply_item": 0,
              "reply_id": 0,
              "item_id": 0
              },
              {
              "user_name": "ミッキー",
              "description": "ゆーちゃんｷﾀ━(ﾟ∀ﾟ)━",
              "id": 0,
              "time": 106,
              "reply_item": 0,
              "reply_id": 0,
              "item_id": 0
              },
              {
              "user_name": "タツ松",
              "description": "なんだ？",
              "id": 0,
              "time": 110,
              "reply_item": 0,
              "reply_id": 0,
              "item_id": 0
              },
              {
              "user_name": "タツ松",
              "description": "・・・誰か来た？",
              "id": 0,
              "time": 115,
              "reply_item": 0,
              "reply_id": 0,
              "item_id": 0
              },
              {
              "user_name": "勇敢な吉田",
              "description": "彼氏のクリスマスプレゼントの相談か",
              "id": 0,
              "time": 120,
              "reply_item": 0,
              "reply_id": 0,
              "item_id": 0
              },
              {
              "user_name": "タツ松",
              "description": "なんか知らん男と話してるんだけどこれってアレ・・・？",
              "id": 0,
              "time": 124,
              "reply_item": 0,
              "reply_id": 0,
              "item_id": 0
              },
              {
              "user_name": "勇敢な吉田",
              "description": "べ、べつに期待なんかしてないんだからね！//",
              "id": 0,
              "time": 128,
              "reply_item": 0,
              "reply_id": 0,
              "item_id": 0
              },

              {
              "user_name": "ミッキー",
              "description": "やっぱ男のことは男に聞くのが一番だよね",
              "id": 0,
              "time": 130,
              "reply_item": 0,
              "reply_id": 0,
              "item_id": 0
              },
              {
              "user_name": "ミッキー",
              "description": "ゆーちゃんのおかげでプレゼント決まった！やはり早い！",
              "id": 0,
              "time": 135,
              "reply_item": 0,
              "reply_id": 0,
              "item_id": 0
              },
              {
              "user_name": "タツ松",
              "description": "そんな・・・浮気・・・？",
              "id": 0,
              "time": 5,
              "reply_item": 136,
              "reply_id": 0,
              "item_id": 0
              },

              {
              "user_name": "勇敢な吉田",
              "description": "あああああああああああぁぁぁあああぁ",
              "id": 0,
              "time": 140,
              "reply_item": 0,
              "reply_id": 0,
              "item_id": 0
              },
              {
              "user_name": "勇敢な吉田",
              "description": "予定あったの忘れてたああああうわあああああああ",
              "id": 0,
              "time": 142,
              "reply_item": 0,
              "reply_id": 0,
              "item_id": 0
              },
              {
              "user_name": "ミッキー",
              "description": "慌てて帰っちゃった・・・",
              "id": 0,
              "time": 145,
              "reply_item": 0,
              "reply_id": 0,
              "item_id": 1
              },
              {
              "user_name": "タツ松",
              "description": "うそだうそだうそだうそだうそだ",
              "id": 0,
              "time": 150,
              "reply_item": 0,
              "reply_id": 0,
              "item_id": 0
              },
              {
              "user_name": "勇敢な吉田",
              "description": "あっぶねえ間に合ったセーフセーフ",
              "id": 0,
              "time": 160,
              "reply_item": 0,
              "reply_id": 0,
              "item_id": 0
              },
              {
              "user_name": "ひとりごと",
              "description": "証拠はそろった",
              "id": 0,
              "time": 170,
              "reply_item": 0,
              "reply_id": 0,
              "item_id": 0
              }


	]
}